KREUZUNG Kr1 500 50 500
KREUZUNG Kr2 0 300 500
KREUZUNG Kr3 0 300 700
KREUZUNG Kr4 0 600 150
KREUZUNG Kr5 0 600 500
KREUZUNG Kr6 0 850 50
KREUZUNG Kr7 200 850 500
KREUZUNG Kr8 1000 850 850
STRASSE Kr1 Kr6 Weg16 Weg61 220 1 0 3 50 500 50 50 850 50
STRASSE Kr1 Kr2 Weg12 Weg21 40  3 1 2 50 500 300 500
STRASSE Kr1 Kr8 Weg18 Weg81 180  3 0 3 50 500 50 850 850 850
STRASSE Kr2 Kr2 Weg22a Weg22b 80  1 1 6 300 500 200 350 250 250 350 250 400 350 300 500
STRASSE Kr2 Kr5 Weg25 Weg52 40  3 1 2 300 500 600 500
STRASSE Kr2 Kr3 Weg23 Weg32 30 3 1 2 300 500 300 700
STRASSE Kr4 Kr5 Weg45b Weg54b 60 3 1 5 600 150 550 150 500 200 500 300 600 500
STRASSE Kr5 Kr4 Weg54a Weg45a 60 3 1 5 600 500 700 300 700 200 650 150 600 150
STRASSE Kr5 Kr8 Weg58 Weg85 70 3 1 2 600 500 850 850
STRASSE Kr6 Kr7 Weg67 Weg76 50 3 1 2 850 50 850 500
STRASSE Kr7 Kr8 Weg78 Weg87 50 3 1 2 850 500 850 850
STRASSE Kr8 Kr6 Weg86 Weg68 120 2 1 4 850 850 950 850 950 50 850 50
STRASSE Kr5 Kr7 Weg57 Weg75 30 3 1 2 600 500 850 500
PKW Trabant 100 6 50 Kr3 2.0
PKW Mercedes 180 12 60 Kr3 2.5
FAHRRAD Peugeot 40 Kr7 4
PKW Porsche 240 14.5 70 Kr7 3.3
FAHRRAD BMX 24 Kr1 1.5
PKW Ferrari 250 15 100 Kr6 4.25
